RTL/top_tb.vcd
$date
	Sun May 10 17:36:15 2026
$end
$version
	Icarus Verilog
$end
$timescale
	1ns
$end
$scope module top_tb $end
$var reg 1 ! clk $end
$var reg 1 " rst $end
$var integer 32 # i [31:0] $end
$scope module DUT $end
$var wire 1 ! clk $end
$var wire 1 " rst $end
$var wire 1 $ zero_top $end
$var wire 32 % pc_sel_mux_out [31:0] $end
$var wire 32 & mux_out_write_data [31:0] $end
$var wire 32 ' instruction_top [31:0] $end
$var wire 32 ( data_mem_read_out_top [31:0] $end
$var wire 32 ) data_mem_mux_out_top [31:0] $end
$var wire 1 * and_out_top $end
$var wire 32 + adder2_out_top [31:0] $end
$var wire 1 , RegWrite_top $end
$var wire 32 - RD2_top [31:0] $end
$var wire 32 . RD1_top [31:0] $end
$var wire 32 / PC_top [31:0] $end
$var wire 32 0 PC_plused_top [31:0] $end
$var wire 32 1 PC_next_mux_out [31:0] $end
$var wire 32 2 PC_addr_mux_out_top [31:0] $end
$var wire 1 3 MemtoReg_top $end
$var wire 1 4 MemWrite_top $end
$var wire 1 5 MemRead_top $end
$var wire 1 6 LUI_en_top $end
$var wire 1 7 JALr_en_top $end
$var wire 32 8 JAL_mux_out_top [31:0] $end
$var wire 1 9 JAL_en_top $end
$var wire 32 : ImmExt_top [31:0] $end
$var wire 1 ; Branch_top $end
$var wire 1 < AUIPC_en_top $end
$var wire 1 = ALUsrc_top $end
$var wire 32 > ALU_out_top [31:0] $end
$var wire 32 ? ALU_mux_out_top [31:0] $end
$var wire 4 @ ALU_ctrl_top [3:0] $end
$var wire 2 A ALUOp_top [1:0] $end
$scope module ALU $end
$var wire 4 B control_in [3:0] $end
$var wire 32 C B [31:0] $end
$var wire 32 D A [31:0] $end
$var reg 32 E ALU_out [31:0] $end
$var reg 1 $ zero $end
$upscope $end
$scope module ALU_mux $end
$var wire 1 = sel $end
$var wire 32 F mux_out [31:0] $end
$var wire 32 G B [31:0] $end
$var wire 32 H A [31:0] $end
$upscope $end
$scope module ALUctrl $end
$var wire 3 I fun3 [2:0] $end
$var wire 1 J fun7 $end
$var wire 2 K ALUOp [1:0] $end
$var reg 4 L control_out [3:0] $end
$upscope $end
$scope module BranchAdd $end
$var wire 32 M plus4_addr [31:0] $end
$var wire 32 N mux_in_addr [31:0] $end
$var wire 32 O ImmAddr [31:0] $end
$upscope $end
$scope module Imm $end
$var wire 7 P opcode [6:0] $end
$var wire 32 Q instruction [31:0] $end
$var reg 32 R ImmExt [31:0] $end
$upscope $end
$scope module PC $end
$var wire 1 ! clk $end
$var wire 1 " rst $end
$var wire 32 S PC_in [31:0] $end
$var reg 32 T PC_out [31:0] $end
$upscope $end
$scope module PC_adder $end
$var wire 32 U fromPC [31:0] $end
$var wire 32 V toPC [31:0] $end
$upscope $end
$scope module ctrl_unit $end
$var wire 7 W opcode [6:0] $end
$var reg 2 X ALUOp [1:0] $end
$var reg 1 = ALUSrc $end
$var reg 1 < AUIPC_en $end
$var reg 1 ; Branch $end
$var reg 1 9 JAL_en $end
$var reg 1 7 JALr_en $end
$var reg 1 6 LUI_en $end
$var reg 1 5 MemRead $end
$var reg 1 4 MemWrite $end
$var reg 1 3 MemtoReg $end
$var reg 1 , RegWrite $end
$upscope $end
$scope module datamem_unit $end
$var wire 1 5 MemRead $end
$var wire 1 4 MemWrite $end
$var wire 32 Y address [31:0] $end
$var wire 1 ! clk $end
$var wire 1 " rst $end
$var wire 32 Z write_data [31:0] $end
$var wire 32 [ read_data [31:0] $end
$var integer 32 \ k [31:0] $end
$upscope $end
$scope module date_mem_mux $end
$var wire 32 ] A [31:0] $end
$var wire 32 ^ B [31:0] $end
$var wire 1 3 sel $end
$var wire 32 _ mux_out [31:0] $end
$upscope $end
$scope module gate $end
$var wire 1 ; Branch $end
$var wire 1 * and_out $end
$var wire 1 $ zero $end
$upscope $end
$scope module gate_mux $end
$var wire 32 ` A [31:0] $end
$var wire 32 a B [31:0] $end
$var wire 1 * sel $end
$var wire 32 b mux_out [31:0] $end
$upscope $end
$scope module inst_mem $end
$var wire 1 ! clk $end
$var wire 32 c instruction_out [31:0] $end
$var wire 32 d read_address [31:0] $end
$var wire 1 " rst $end
$upscope $end
$scope module pc_sel_mux_J $end
$var wire 32 e A [31:0] $end
$var wire 32 f B [31:0] $end
$var wire 1 9 sel $end
$var wire 32 g mux_out [31:0] $end
$upscope $end
$scope module pc_sel_mux_Jr $end
$var wire 32 h A [31:0] $end
$var wire 32 i B [31:0] $end
$var wire 1 7 sel $end
$var wire 32 j mux_out [31:0] $end
$upscope $end
$scope module pc_sel_mux_U $end
$var wire 32 k B [31:0] $end
$var wire 1 < sel $end
$var wire 32 l mux_out [31:0] $end
$var wire 32 m A [31:0] $end
$upscope $end
$scope module regFile $end
$var wire 1 ! clk $end
$var wire 5 n rd [4:0] $end
$var wire 32 o read_data_1 [31:0] $end
$var wire 32 p read_data_2 [31:0] $end
$var wire 1 , reg_write $end
$var wire 5 q rs1 [4:0] $end
$var wire 5 r rs2 [4:0] $end
$var wire 1 " rst $end
$var wire 32 s write_data [31:0] $end
$var integer 32 t k [31:0] $end
$upscope $end
$scope module write_reg_mux $end
$var wire 32 u A [31:0] $end
$var wire 32 v B [31:0] $end
$var wire 1 6 sel $end
$var wire 32 w mux_out [31:0] $end
$upscope $end
$upscope $end
$upscope $end
$enddefinitions $end
$comment Show the parameter values. $end
$dumpall
$end
#0
$dumpvars
b100010 w
b11111111111111111111111111100000 v
b100010 u
b100000 t
b100010 s
b0 r
b10 q
b0 p
b10 o
b10 n
b10 m
b10 l
b0 k
b100 j
b100010 i
b100 h
b100 g
b100010 f
b100 e
b0 d
b11111110000000010000000100010011 c
b100 b
b11111111111111111111111111100000 a
b100 `
b100010 _
b0 ^
b100010 ]
b1000000 \
b0 [
b0 Z
b100010 Y
b10 X
b10011 W
b100 V
b0 U
b0 T
b100 S
b11111111111111111111111111100000 R
b11111110000000010000000100010011 Q
b10011 P
b11111111111111111111111111100000 O
b11111111111111111111111111100000 N
b0 M
b110 L
b10 K
1J
b0 I
b0 H
b11111111111111111111111111100000 G
b11111111111111111111111111100000 F
b100010 E
b10 D
b11111111111111111111111111100000 C
b110 B
b10 A
b110 @
b11111111111111111111111111100000 ?
b100010 >
1=
0<
0;
b11111111111111111111111111100000 :
09
b100 8
07
06
05
04
03
b100 2
b100 1
b100 0
b0 /
b10 .
b0 -
1,
b11111111111111111111111111100000 +
0*
b100010 )
b0 (
b11111110000000010000000100010011 '
b100010 &
b10 %
0$
b1000000 #
1"
0!
$end
#5
b110 &
b110 s
b110 w
b110 )
b110 _
b110 u
b11100 ?
b11100 C
b11100 F
0,
14
b0 A
b0 K
b0 X
b110 >
b110 E
b110 Y
b110 ]
b110 f
b110 i
b11100 :
b11100 G
b11100 O
b11100 R
b11100 v
b1000 1
b1000 S
b1000 j
b1000 8
b1000 g
b1000 h
b10 I
0J
b100011 P
b11100 n
b1 -
b1 H
b1 Z
b1 p
b1 r
b100011 W
b100010 %
b100010 D
b100010 l
b1000 2
b1000 b
b1000 e
b100010010111000100011 '
b100010010111000100011 Q
b100010010111000100011 c
b100010 .
b100010 m
b100010 o
b1000 0
b1000 V
b1000 `
b100000 +
b100000 N
b100000 a
b100 /
b100 M
b100 T
b100 U
b100 d
b100 k
1!
0"
#10
0!
#15
b1010 &
b1010 s
b1010 w
b1010 )
b1010 _
b1010 u
b1010 >
b1010 E
b1010 Y
b1010 ]
b1010 f
b1010 i
b11000 ?
b11000 C
b11000 F
b11000 :
b11000 G
b11000 O
b11000 R
b11000 v
b1100 1
b1100 S
b1100 j
b1100 8
b1100 g
b1100 h
b11000 n
b1000 -
b1000 H
b1000 Z
b1000 p
b1000 r
b1100 2
b1100 b
b1100 e
b100000010010110000100011 '
b100000010010110000100011 Q
b100000010010110000100011 c
b1100 0
b1100 V
b1100 `
b100000 +
b100000 N
b100000 a
b1000 /
b1000 M
b1000 T
b1000 U
b1000 d
b1000 k
1!
#20
0!
#25
b1000010 &
b1000010 s
b1000010 w
b1000010 )
b1000010 _
b1000010 u
b1000010 >
b1000010 E
b1000010 Y
b1000010 ]
b1000010 f
b1000010 i
b100000 ?
b100000 C
b100000 F
b10 @
b10 B
b10 L
1,
04
b10 A
b10 K
b10 X
b100000 :
b100000 G
b100000 O
b100000 R
b100000 v
b10000 1
b10000 S
b10000 j
b10000 8
b10000 g
b10000 h
b0 I
b10011 P
b1000 n
b0 -
b0 H
b0 Z
b0 p
b0 r
b10011 W
b10000 2
b10000 b
b10000 e
b10000000010000010000010011 '
b10000000010000010000010011 Q
b10000000010000010000010011 c
b10000 0
b10000 V
b10000 `
b101100 +
b101100 N
b101100 a
b1100 /
b1100 M
b1100 T
b1100 U
b1100 d
b1100 k
1!
#30
0!
#35
b1111 &
b1111 s
b1111 w
b1111 )
b1111 _
b1111 u
b1111 ?
b1111 C
b1111 F
b1111 >
b1111 E
b1111 Y
b1111 ]
b1111 f
b1111 i
b1111 :
b1111 G
b1111 O
b1111 R
b1111 v
b10100 1
b10100 S
b10100 j
b0 %
b0 D
b0 l
b10100 8
b10100 g
b10100 h
b1111 n
b1111 -
b1111 H
b1111 Z
b1111 p
b1111 r
b0 .
b0 m
b0 o
b0 q
b10100 2
b10100 b
b10100 e
b111100000000011110010011 '
b111100000000011110010011 Q
b111100000000011110010011 c
b10100 0
b10100 V
b10100 `
b11111 +
b11111 N
b11111 a
b10000 /
b10000 M
b10000 T
b10000 U
b10000 d
b10000 k
1!
#40
0!
#45
b101110 &
b101110 s
b101110 w
b101110 )
b101110 _
b101110 u
b11111111111111111111111111101100 ?
b11111111111111111111111111101100 C
b11111111111111111111111111101100 F
b101110 >
b101110 E
b101110 Y
b101110 ]
b101110 f
b101110 i
0,
14
b0 A
b0 K
b0 X
b11111111111111111111111111101100 :
b11111111111111111111111111101100 G
b11111111111111111111111111101100 O
b11111111111111111111111111101100 R
b11111111111111111111111111101100 v
b11000 1
b11000 S
b11000 j
b1000010 %
b1000010 D
b1000010 l
b11000 8
b11000 g
b11000 h
b10 I
1J
b100011 P
b1100 n
b1000010 .
b1000010 m
b1000010 o
b1000 q
b100011 W
b11000 2
b11000 b
b11000 e
b11111110111101000010011000100011 '
b11111110111101000010011000100011 Q
b11111110111101000010011000100011 c
b11000 0
b11000 V
b11000 `
b0 +
b0 N
b0 a
b10100 /
b10100 M
b10100 T
b10100 U
b10100 d
b10100 k
1!
#50
0!
#55
b11 &
b11 s
b11 w
b11 )
b11 _
b11 u
b11 ?
b11 C
b11 F
b11 >
b11 E
b11 Y
b11 ]
b11 f
b11 i
1,
04
b10 A
b10 K
b10 X
b11 :
b11 G
b11 O
b11 R
b11 v
b11100 1
b11100 S
b11100 j
b0 %
b0 D
b0 l
b11100 8
b11100 g
b11100 h
b0 I
0J
b10011 P
b1111 n
b11 -
b11 H
b11 Z
b11 p
b11 r
b0 .
b0 m
b0 o
b0 q
b10011 W
b11100 2
b11100 b
b11100 e
b1100000000011110010011 '
b1100000000011110010011 Q
b1100000000011110010011 c
b11100 0
b11100 V
b11100 `
b11011 +
b11011 N
b11011 a
b11000 /
b11000 M
b11000 T
b11000 U
b11000 d
b11000 k
1!
#60
0!
#65
b101010 &
b101010 s
b101010 w
b101010 )
b101010 _
b101010 u
b11111111111111111111111111101000 ?
b11111111111111111111111111101000 C
b11111111111111111111111111101000 F
b101010 >
b101010 E
b101010 Y
b101010 ]
b101010 f
b101010 i
0,
14
b0 A
b0 K
b0 X
b11111111111111111111111111101000 :
b11111111111111111111111111101000 G
b11111111111111111111111111101000 O
b11111111111111111111111111101000 R
b11111111111111111111111111101000 v
b100000 1
b100000 S
b100000 j
b1000010 %
b1000010 D
b1000010 l
b100000 8
b100000 g
b100000 h
b10 I
1J
b100011 P
b1000 n
b1111 r
b1000010 .
b1000010 m
b1000010 o
b1000 q
b100011 W
b100000 2
b100000 b
b100000 e
b11111110111101000010010000100011 '
b11111110111101000010010000100011 Q
b11111110111101000010010000100011 c
b100000 0
b100000 V
b100000 `
b100 +
b100 N
b100 a
b11100 /
b11100 M
b11100 T
b11100 U
b11100 d
b11100 k
1!
#70
0!
#75
b101110 >
b101110 E
b101110 Y
b101110 ]
b101110 f
b101110 i
b1111 &
b1111 s
b1111 w
b1111 )
b1111 _
b1111 u
b1111 (
b1111 [
b1111 ^
b11111111111111111111111111101100 ?
b11111111111111111111111111101100 C
b11111111111111111111111111101100 F
13
1,
15
04
b11111111111111111111111111101100 :
b11111111111111111111111111101100 G
b11111111111111111111111111101100 O
b11111111111111111111111111101100 R
b11111111111111111111111111101100 v
b100100 1
b100100 S
b100100 j
b100100 8
b100100 g
b100100 h
b11 P
b1110 n
b1100 -
b1100 H
b1100 Z
b1100 p
b1100 r
b11 W
b100100 2
b100100 b
b100100 e
b11111110110001000010011100000011 '
b11111110110001000010011100000011 Q
b11111110110001000010011100000011 c
b100100 0
b100100 V
b100100 `
b1100 +
b1100 N
b1100 a
b100000 /
b100000 M
b100000 T
b100000 U
b100000 d
b100000 k
1!
#80
0!
#85
b11 &
b11 s
b11 w
b11 )
b11 _
b11 u
b11 (
b11 [
b11 ^
b101010 >
b101010 E
b101010 Y
b101010 ]
b101010 f
b101010 i
b11111111111111111111111111101000 ?
b11111111111111111111111111101000 C
b11111111111111111111111111101000 F
b11111111111111111111111111101000 :
b11111111111111111111111111101000 G
b11111111111111111111111111101000 O
b11111111111111111111111111101000 R
b11111111111111111111111111101000 v
b101000 1
b101000 S
b101000 j
b101000 8
b101000 g
b101000 h
b1111 n
b1000010 -
b1000010 H
b1000010 Z
b1000010 p
b1000 r
b101000 2
b101000 b
b101000 e
b11111110100001000010011110000011 '
b11111110100001000010011110000011 Q
b11111110100001000010011110000011 c
b101000 0
b101000 V
b101000 `
b1100 +
b1100 N
b1100 a
b100100 /
b100100 M
b100100 T
b100100 U
b100100 d
b100100 k
1!
#90
0!
#95
b10010 &
b10010 s
b10010 w
b10010 )
b10010 _
b10010 u
b0 (
b0 [
b0 ^
b11 ?
b11 C
b11 F
b10010 >
b10010 E
b10010 Y
b10010 ]
b10010 f
b10010 i
0=
03
05
b10 A
b10 K
b10 X
b0 :
b0 G
b0 O
b0 R
b0 v
b101100 1
b101100 S
b101100 j
b1111 %
b1111 D
b1111 l
b101100 8
b101100 g
b101100 h
b0 I
0J
b110011 P
b11 -
b11 H
b11 Z
b11 p
b1111 r
b1111 .
b1111 m
b1111 o
b1110 q
b110011 W
b101100 2
b101100 b
b101100 e
b111101110000011110110011 '
b111101110000011110110011 Q
b111101110000011110110011 c
b101100 0
b101100 V
b101100 `
b101000 +
b101000 N
b101000 a
b101000 /
b101000 M
b101000 T
b101000 U
b101000 d
b101000 k
1!
#100
0!
#105
b100110 &
b100110 s
b100110 w
b100110 )
b100110 _
b100110 u
b11111111111111111111111111100100 :
b11111111111111111111111111100100 G
b11111111111111111111111111100100 O
b11111111111111111111111111100100 R
b11111111111111111111111111100100 v
1=
0,
14
b0 A
b0 K
b0 X
b100110 >
b100110 E
b100110 Y
b100110 ]
b100110 f
b100110 i
b110000 1
b110000 S
b110000 j
b1000010 %
b1000010 D
b1000010 l
b110000 8
b110000 g
b110000 h
b10 I
1J
b100011 P
b100 n
b1000010 .
b1000010 m
b1000010 o
b1000 q
b100011 W
b11111111111111111111111111100100 ?
b11111111111111111111111111100100 C
b11111111111111111111111111100100 F
b110000 2
b110000 b
b110000 e
b11111110111101000010001000100011 '
b11111110111101000010001000100011 Q
b11111110111101000010001000100011 c
b10010 -
b10010 H
b10010 Z
b10010 p
b110000 0
b110000 V
b110000 `
b10000 +
b10000 N
b10000 a
b101100 /
b101100 M
b101100 T
b101100 U
b101100 d
b101100 k
1!
#110
0!
#115
b110000 &
b110000 s
b110000 w
b110000 )
b110000 _
b110000 u
b0 ?
b0 C
b0 F
b110000 >
b110000 E
b110000 Y
b110000 ]
b110000 f
b110000 i
04
1<
19
b10 A
b10 K
b10 X
b0 :
b0 G
b0 O
b0 R
b0 v
b110000 1
b110000 S
b110000 j
b110000 %
b110000 D
b110000 l
b110000 8
b110000 g
b110000 h
b0 I
0J
b1101111 P
b0 n
b0 -
b0 H
b0 Z
b0 p
b0 r
b0 .
b0 m
b0 o
b0 q
b1101111 W
b110100 2
b110100 b
b110100 e
b1101111 '
b1101111 Q
b1101111 c
b110100 0
b110100 V
b110100 `
b110000 +
b110000 N
b110000 a
b110000 /
b110000 M
b110000 T
b110000 U
b110000 d
b110000 k
1!
